%YAML 1.1
%TAG !u! tag:unity3d.com,2011:
--- !u!221 &22100000
AnimatorOverrideController:
  m_ObjectHideFlags: 0
  m_CorrespondingSourceObject: {fileID: 0}
  m_PrefabInstance: {fileID: 0}
  m_PrefabAsset: {fileID: 0}
  m_Name: Evil Override
  m_Controller: {fileID: 9100000, guid: e9b37477d40024b42b73354b0ca59a0e, type: 2}
  m_Clips:
  - m_OriginalClip: {fileID: 7400000, guid: 0dd2a73f9c57b7747b43d69db67ba693, type: 2}
    m_OverrideClip: {fileID: 7400000, guid: 77875fd5a9a4bdc4cbfe20692039938e, type: 2}
  - m_OriginalClip: {fileID: 7400000, guid: fd77a0a181a43fe40bd107cf46191833, type: 2}
    m_OverrideClip: {fileID: 7400000, guid: 77875fd5a9a4bdc4cbfe20692039938e, type: 2}
  - m_OriginalClip: {fileID: 7400000, guid: 4b00fc32f3983c94f883c71e17345cb6, type: 2}
    m_OverrideClip: {fileID: 7400000, guid: 77875fd5a9a4bdc4cbfe20692039938e, type: 2}
  - m_OriginalClip: {fileID: 7400000, guid: b8431906dbe65874d982e22f86954629, type: 2}
    m_OverrideClip: {fileID: 7400000, guid: 77875fd5a9a4bdc4cbfe20692039938e, type: 2}
  - m_OriginalClip: {fileID: 7400000, guid: b318f855568f6744ba405c43a3607726, type: 2}
    m_OverrideClip: {fileID: 7400000, guid: 77875fd5a9a4bdc4cbfe20692039938e, type: 2}
  - m_OriginalClip: {fileID: 7400000, guid: e2fa71fc50280884eae244817d3b1991, type: 2}
    m_OverrideClip: {fileID: 7400000, guid: 77875fd5a9a4bdc4cbfe20692039938e, type: 2}
  - m_OriginalClip: {fileID: 7400000, guid: c7492b42ae19f3e48bda304b9d914ed1, type: 2}
    m_OverrideClip: {fileID: 7400000, guid: 77875fd5a9a4bdc4cbfe20692039938e, type: 2}
  - m_OriginalClip: {fileID: 7400000, guid: 9078fd2ad412bc7498b91baaa35585cd, type: 2}
    m_OverrideClip: {fileID: 7400000, guid: 77875fd5a9a4bdc4cbfe20692039938e, type: 2}
  - m_OriginalClip: {fileID: 7400000, guid: 958c3b3852ba1c149a2a1385a9595c42, type: 2}
    m_OverrideClip: {fileID: 7400000, guid: 77875fd5a9a4bdc4cbfe20692039938e, type: 2}
  - m_OriginalClip: {fileID: 7400000, guid: 33cfd34fdfb7f8b4ab0d7b2ed3e4f5ed, type: 2}
    m_OverrideClip: {fileID: 7400000, guid: 77875fd5a9a4bdc4cbfe20692039938e, type: 2}
