%YAML 1.1
%TAG !u! tag:unity3d.com,2011:
--- !u!114 &11400000
MonoBehaviour:
  m_ObjectHideFlags: 0
  m_CorrespondingSourceObject: {fileID: 0}
  m_PrefabInstance: {fileID: 0}
  m_PrefabAsset: {fileID: 0}
  m_GameObject: {fileID: 0}
  m_Enabled: 1
  m_EditorHideFlags: 0
  m_Script: {fileID: 11500000, guid: 5b13e4c7825c58648a88665dfbda0723, type: 3}
  m_Name: Hat Collection
  m_EditorClassIdentifier: 
  _list:
  - {fileID: 11400000, guid: 7080fa7b91b814c4090bcec85cefd57e, type: 2}
  - {fileID: 11400000, guid: 2fa448a016b7cf84cb428820f1be6ee6, type: 2}
  - {fileID: 11400000, guid: 9632dac1fee723c4a8749b63b311959d, type: 2}
  - {fileID: 11400000, guid: dfc4bd183a004a64dbbd195b4f7af12e, type: 2}
  - {fileID: 11400000, guid: a7bce2c9edeb0a341ad3c2d5f15578bf, type: 2}
  - {fileID: 11400000, guid: bc71971e68ca74747832b4ba66b4b4fe, type: 2}
  - {fileID: 11400000, guid: f1b993b5e208fba49a76abbca5b15a8e, type: 2}
  - {fileID: 11400000, guid: 6ab6d0fe5f9194045b046b3087e13482, type: 2}
  - {fileID: 11400000, guid: e565e726c44a1ce42a560159de84cdbd, type: 2}
  - {fileID: 11400000, guid: ec9c5496ffb6fc94ea07718dc549e381, type: 2}
  - {fileID: 11400000, guid: bb5edc158ca6c3b498e3b586dc6f30b6, type: 2}
  - {fileID: 11400000, guid: 7fa09052bde37664ba4bbf5ef6ac499c, type: 2}
  - {fileID: 11400000, guid: d5ba5c3b2bfce5a47860e6f759a66ffc, type: 2}
  - {fileID: 11400000, guid: 049bfd9ca4c35fd439aefa31827c81f7, type: 2}
  - {fileID: 11400000, guid: 335950825a817f641b0b6db031fadd5f, type: 2}
  - {fileID: 11400000, guid: 480183f49b7b90d4ab947cbddcfeb793, type: 2}
  - {fileID: 11400000, guid: 5fcd3be453028b04285aeec7a1678495, type: 2}
