%YAML 1.1
%TAG !u! tag:unity3d.com,2011:
--- !u!74 &7400000
AnimationClip:
  m_ObjectHideFlags: 0
  m_CorrespondingSourceObject: {fileID: 0}
  m_PrefabInstance: {fileID: 0}
  m_PrefabAsset: {fileID: 0}
  m_Name: Copter Flight
  serializedVersion: 6
  m_Legacy: 0
  m_Compressed: 0
  m_UseHighQualityCurve: 1
  m_RotationCurves: []
  m_CompressedRotationCurves: []
  m_EulerCurves: []
  m_PositionCurves:
  - curve:
      serializedVersion: 2
      m_Curve:
      - serializedVersion: 3
        time: 0
        value: {x: 0, y: 0, z: 0}
        inSlope: {x: 0, y: 0, z: 0}
        outSlope: {x: 0, y: 0, z: 0}
        tangentMode: 0
        weightedMode: 0
        inWeight: {x: 0.33333334, y: 0.33333334, z: 0.33333334}
        outWeight: {x: 0.33333334, y: 0.33333334, z: 0.33333334}
      - serializedVersion: 3
        time: 0.4
        value: {x: 0, y: -0.15, z: 0}
        inSlope: {x: 0, y: 0, z: 0}
        outSlope: {x: 0, y: 0, z: 0}
        tangentMode: 0
        weightedMode: 0
        inWeight: {x: 0.33333334, y: 0.33333334, z: 0.33333334}
        outWeight: {x: 0.33333334, y: 0.33333334, z: 0.33333334}
      - serializedVersion: 3
        time: 0.8
        value: {x: 0, y: 0, z: 0}
        inSlope: {x: 0, y: 0, z: 0}
        outSlope: {x: 0, y: 0, z: 0}
        tangentMode: 0
        weightedMode: 0
        inWeight: {x: 0.33333334, y: 0.33333334, z: 0.33333334}
        outWeight: {x: 0.33333334, y: 0.33333334, z: 0.33333334}
      m_PreInfinity: 2
      m_PostInfinity: 2
      m_RotationOrder: 4
    path: 
  m_ScaleCurves: []
  m_FloatCurves: []
  m_PPtrCurves:
  - curve:
    - time: 0
      value: {fileID: 8332600833460555938, guid: 6cbe556ba2e418649a3b0b874be12598,
        type: 3}
    - time: 0.06666667
      value: {fileID: -2994100162282831639, guid: 6cbe556ba2e418649a3b0b874be12598,
        type: 3}
    - time: 0.13333334
      value: {fileID: -7466501553182914574, guid: 6cbe556ba2e418649a3b0b874be12598,
        type: 3}
    - time: 0.2
      value: {fileID: 4788791534984897092, guid: 6cbe556ba2e418649a3b0b874be12598,
        type: 3}
    - time: 0.26666668
      value: {fileID: 8332600833460555938, guid: 6cbe556ba2e418649a3b0b874be12598,
        type: 3}
    - time: 0.33333334
      value: {fileID: -2994100162282831639, guid: 6cbe556ba2e418649a3b0b874be12598,
        type: 3}
    - time: 0.4
      value: {fileID: -7466501553182914574, guid: 6cbe556ba2e418649a3b0b874be12598,
        type: 3}
    - time: 0.46666667
      value: {fileID: 4788791534984897092, guid: 6cbe556ba2e418649a3b0b874be12598,
        type: 3}
    - time: 0.53333336
      value: {fileID: 8332600833460555938, guid: 6cbe556ba2e418649a3b0b874be12598,
        type: 3}
    - time: 0.6
      value: {fileID: -2994100162282831639, guid: 6cbe556ba2e418649a3b0b874be12598,
        type: 3}
    - time: 0.6666667
      value: {fileID: -7466501553182914574, guid: 6cbe556ba2e418649a3b0b874be12598,
        type: 3}
    - time: 0.73333335
      value: {fileID: 4788791534984897092, guid: 6cbe556ba2e418649a3b0b874be12598,
        type: 3}
    attribute: m_Sprite
    path: propeller
    classID: 212
    script: {fileID: 0}
  m_SampleRate: 60
  m_WrapMode: 0
  m_Bounds:
    m_Center: {x: 0, y: 0, z: 0}
    m_Extent: {x: 0, y: 0, z: 0}
  m_ClipBindingConstant:
    genericBindings:
    - serializedVersion: 2
      path: 0
      attribute: 1
      script: {fileID: 0}
      typeID: 4
      customType: 0
      isPPtrCurve: 0
    - serializedVersion: 2
      path: 1231912299
      attribute: 0
      script: {fileID: 0}
      typeID: 212
      customType: 23
      isPPtrCurve: 1
    pptrCurveMapping:
    - {fileID: 8332600833460555938, guid: 6cbe556ba2e418649a3b0b874be12598, type: 3}
    - {fileID: -2994100162282831639, guid: 6cbe556ba2e418649a3b0b874be12598, type: 3}
    - {fileID: -7466501553182914574, guid: 6cbe556ba2e418649a3b0b874be12598, type: 3}
    - {fileID: 4788791534984897092, guid: 6cbe556ba2e418649a3b0b874be12598, type: 3}
    - {fileID: 8332600833460555938, guid: 6cbe556ba2e418649a3b0b874be12598, type: 3}
    - {fileID: -2994100162282831639, guid: 6cbe556ba2e418649a3b0b874be12598, type: 3}
    - {fileID: -7466501553182914574, guid: 6cbe556ba2e418649a3b0b874be12598, type: 3}
    - {fileID: 4788791534984897092, guid: 6cbe556ba2e418649a3b0b874be12598, type: 3}
    - {fileID: 8332600833460555938, guid: 6cbe556ba2e418649a3b0b874be12598, type: 3}
    - {fileID: -2994100162282831639, guid: 6cbe556ba2e418649a3b0b874be12598, type: 3}
    - {fileID: -7466501553182914574, guid: 6cbe556ba2e418649a3b0b874be12598, type: 3}
    - {fileID: 4788791534984897092, guid: 6cbe556ba2e418649a3b0b874be12598, type: 3}
  m_AnimationClipSettings:
    serializedVersion: 2
    m_AdditiveReferencePoseClip: {fileID: 0}
    m_AdditiveReferencePoseTime: 0
    m_StartTime: 0
    m_StopTime: 0.8
    m_OrientationOffsetY: 0
    m_Level: 0
    m_CycleOffset: 0
    m_HasAdditiveReferencePose: 0
    m_LoopTime: 1
    m_LoopBlend: 0
    m_LoopBlendOrientation: 0
    m_LoopBlendPositionY: 0
    m_LoopBlendPositionXZ: 0
    m_KeepOriginalOrientation: 0
    m_KeepOriginalPositionY: 1
    m_KeepOriginalPositionXZ: 0
    m_HeightFromFeet: 0
    m_Mirror: 0
  m_EditorCurves:
  - curve:
      serializedVersion: 2
      m_Curve:
      - serializedVersion: 3
        time: 0
        value: 0
        inSlope: 0
        outSlope: 0
        tangentMode: 136
        weightedMode: 0
        inWeight: 0.33333334
        outWeight: 0.33333334
      - serializedVersion: 3
        time: 0.4
        value: 0
        inSlope: 0
        outSlope: 0
        tangentMode: 136
        weightedMode: 0
        inWeight: 0.33333334
        outWeight: 0.33333334
      - serializedVersion: 3
        time: 0.8
        value: 0
        inSlope: 0
        outSlope: 0
        tangentMode: 136
        weightedMode: 0
        inWeight: 0.33333334
        outWeight: 0.33333334
      m_PreInfinity: 2
      m_PostInfinity: 2
      m_RotationOrder: 4
    attribute: m_LocalPosition.x
    path: 
    classID: 4
    script: {fileID: 0}
  - curve:
      serializedVersion: 2
      m_Curve:
      - serializedVersion: 3
        time: 0
        value: 0
        inSlope: 0
        outSlope: 0
        tangentMode: 136
        weightedMode: 0
        inWeight: 0.33333334
        outWeight: 0.33333334
      - serializedVersion: 3
        time: 0.4
        value: -0.15
        inSlope: 0
        outSlope: 0
        tangentMode: 136
        weightedMode: 0
        inWeight: 0.33333334
        outWeight: 0.33333334
      - serializedVersion: 3
        time: 0.8
        value: 0
        inSlope: 0
        outSlope: 0
        tangentMode: 136
        weightedMode: 0
        inWeight: 0.33333334
        outWeight: 0.33333334
      m_PreInfinity: 2
      m_PostInfinity: 2
      m_RotationOrder: 4
    attribute: m_LocalPosition.y
    path: 
    classID: 4
    script: {fileID: 0}
  - curve:
      serializedVersion: 2
      m_Curve:
      - serializedVersion: 3
        time: 0
        value: 0
        inSlope: 0
        outSlope: 0
        tangentMode: 136
        weightedMode: 0
        inWeight: 0.33333334
        outWeight: 0.33333334
      - serializedVersion: 3
        time: 0.4
        value: 0
        inSlope: 0
        outSlope: 0
        tangentMode: 136
        weightedMode: 0
        inWeight: 0.33333334
        outWeight: 0.33333334
      - serializedVersion: 3
        time: 0.8
        value: 0
        inSlope: 0
        outSlope: 0
        tangentMode: 136
        weightedMode: 0
        inWeight: 0.33333334
        outWeight: 0.33333334
      m_PreInfinity: 2
      m_PostInfinity: 2
      m_RotationOrder: 4
    attribute: m_LocalPosition.z
    path: 
    classID: 4
    script: {fileID: 0}
  m_EulerEditorCurves: []
  m_HasGenericRootTransform: 1
  m_HasMotionFloatCurves: 0
  m_Events: []
